time1,retweets,time3,tweet,time2,loops,dif_loops,revines,likes,comments,dif_revines,dif_likes,dif_comments
2017-01-01 05:00:01.00,2891,2017-01-01 05:00:01.00,36,2017-01-01 05:44:34,4029702,,33,83,3,,,
2017-01-01 06:00:00.00,16058,2017-01-01 06:00:00.00,185,2017-01-01 06:37:11,5278301,1248599,54,125,5,21,42,2
2017-01-01 07:00:00.00,8084,2017-01-01 07:00:00.00,55,2017-01-01 07:41:44,6488752,121451,69,197,9,15,72,4
2017-01-01 08:00:00.00,7239,2017-01-01 08:00:00.00,30,2017-01-01 08:54:33,7291904,83152,84,250,11,15,53,2
2017-01-01 09:00:00.00,4092,2017-01-01 09:00:00.00,19,2017-01-01 10:23:35,7914635,622731,96,295,13,12,45,2
2017-01-01 10:00:00.00,2598,2017-01-01 10:00:00.00,12,2017-01-01 10:57:57,8088272,173637,98,307,13,2,12,1
2017-01-01 11:00:00.00,1835,2017-01-01 11:00:00.00,8,2017-01-01 12:05:27,8432343,34471,105,323,15,7,16,2
2017-01-01 12:00:00.00,1178,2017-01-01 12:00:00.00,6,2017-01-01 12:40:01,8676541,244198,105,335,15,1,12,1
2017-01-01 13:00:02.00,1127,2017-01-01 13:00:02.00,7,2017-01-01 13:32:26,8676541,1,105,335,15,1,1,1
2017-01-01 14:00:02.00,1369,2017-01-01 14:00:02.00,5,2017-01-01 14:43:58,9949312,1272771,117,377,15,12,42,1
2017-01-01 15:00:00.00,1912,2017-01-01 15:00:00.00,13,2017-01-01 15:52:43,10859880,91568,125,401,17,8,24,2
2017-01-01 16:00:00.00,2577,2017-01-01 16:00:00.00,9,2017-01-01 16:40:00,11549652,689772,132,428,18,7,27,1
2017-01-01 17:00:01.00,3086,2017-01-01 17:00:01.00,13,2017-01-01 17:27:54,12202859,65327,141,467,19,9,39,1
2017-01-01 18:00:00.00,3300,2017-01-01 18:00:00.00,19,2017-01-01 18:18:14,12785261,58242,153,515,19,12,48,1
2017-01-01 19:00:00.00,3055,2017-01-01 19:00:00.00,13,2017-01-01 19:42:14,13772634,987373,176,598,20,23,83,1
2017-01-01 20:00:00.00,3405,2017-01-01 20:00:00.00,30,2017-01-01 20:21:16,14333594,5696,186,629,21,1,31,1
2017-01-01 21:00:00.00,4651,2017-01-01 21:00:00.00,31,2017-01-01 21:39:00,15272231,938637,210,698,23,24,69,2
2017-01-01 22:00:00.00,3273,2017-01-01 22:00:00.00,6,2017-01-01 22:16:33,15766195,493964,218,731,24,8,33,1
2017-01-01 23:00:00.00,4150,2017-01-01 23:00:00.00,27,2017-01-01 23:23:02,16433002,66687,239,795,27,21,64,3
2017-01-02 00:00:00.00,3117,2017-01-02 00:00:00.00,8,2017-01-02 00:45:12,17211614,778612,263,874,28,24,79,1
2017-01-02 01:00:00.00,2852,2017-01-02 01:00:00.00,8,2017-01-02 01:24:42,17500430,288816,272,914,29,9,4,1
2017-01-02 02:00:01.00,2332,2017-01-02 02:00:01.00,4,2017-01-02 02:42:17,18253887,753457,285,974,32,13,6,3
2017-01-02 03:00:00.00,3472,2017-01-02 03:00:00.00,25,2017-01-02 03:21:03,18682777,42889,297,1019,32,12,45,1
2017-01-02 04:00:00.00,2779,2017-01-02 04:00:00.00,5,2017-01-02 04:39:02,19327384,64467,310,1089,33,13,7,1
2017-01-02 05:00:00.00,1897,2017-01-02 07:00:00.00,1,2017-01-02 05:27:05,19633600,36216,316,1135,33,6,46,1
2017-01-02 06:00:00.00,1502,2017-01-02 08:00:00.00,2,2017-01-02 06:20:22,19909401,27581,326,1183,34,1,48,1
2017-01-02 07:00:00.00,988,2017-01-02 09:00:00.00,3,2017-01-02 07:18:18,20127469,21868,333,1213,34,7,3,1
2017-01-02 08:00:00.00,823,2017-01-02 10:00:00.00,1,2017-01-02 08:36:23,20341478,2149,344,1259,36,11,46,2
2017-01-02 09:00:00.00,599,2017-01-02 11:00:00.00,1,2017-01-02 09:56:16,20497603,156125,351,1297,39,7,38,3
2017-01-02 10:00:00.00,382,2017-01-02 12:00:00.00,1,2017-01-02 11:24:27,20640677,14374,354,1321,39,3,24,1
2017-01-02 11:00:00.00,293,2017-01-02 14:00:01.00,1,2017-01-02 11:55:22,20690550,49873,355,1327,39,1,6,1
2017-01-02 12:00:00.00,265,2017-01-02 15:00:00.00,1,2017-01-02 12:42:31,20769080,7853,356,1332,39,1,5,1
2017-01-02 13:00:00.00,230,2017-01-02 16:00:00.00,4,2017-01-02 13:58:08,20922345,153265,361,1348,39,5,16,1
2017-01-02 14:00:01.00,267,2017-01-02 17:00:00.00,7,2017-01-02 15:01:33,21093010,17665,366,1368,39,5,2,1
2017-01-02 15:00:00.00,352,2017-01-02 18:00:02.00,3,2017-01-02 15:59:28,21286747,193737,373,1393,41,7,25,2
2017-01-02 16:00:00.00,529,2017-01-02 19:00:00.00,5,2017-01-02 16:54:43,21536962,25215,380,1417,41,7,24,1
2017-01-02 17:00:00.00,778,2017-01-02 20:00:01.00,4,2017-01-02 17:46:51,21777243,24281,386,1448,42,6,31,1
2017-01-02 18:00:02.00,1003,2017-01-03 00:00:01.00,3,2017-01-02 18:44:13,22076065,298822,391,1486,42,5,38,1
2017-01-02 19:00:00.00,1044,2017-01-03 01:00:00.00,1,2017-01-02 19:33:06,22271239,195174,399,1520,42,8,34,1
2017-01-02 20:00:01.00,719,2017-01-03 02:00:00.00,2,2017-01-02 20:31:07,22499447,22828,406,1554,42,7,34,1
2017-01-02 21:00:00.00,523,2017-01-03 04:00:00.00,2,2017-01-02 21:28:24,22673224,173777,411,1594,45,5,4,3
2017-01-02 22:00:00.00,372,2017-01-03 05:00:00.00,11,2017-01-03 00:41:42,23290506,617282,436,1712,50,25,118,5
2017-01-02 23:00:00.00,395,2017-01-03 06:00:00.00,1,2017-01-03 01:32:45,23416410,12594,444,1749,52,8,37,2
2017-01-03 00:00:01.00,288,2017-01-03 12:00:04.00,1,2017-01-03 05:18:09,24053440,6373,471,1899,55,27,15,3
2017-01-03 01:00:00.00,289,2017-01-03 18:00:07.00,1,2017-01-03 08:09:01,24294793,241353,485,1973,56,14,74,1
2017-01-03 02:00:00.00,376,2017-01-03 19:00:00.00,1,2017-01-03 09:42:57,24367988,73195,489,1989,57,4,16,1
2017-01-03 03:00:00.00,439,2017-01-03 20:00:00.00,3,2017-01-03 10:56:36,24411576,43588,494,2007,57,5,18,1
2017-01-03 04:00:00.00,258,2017-01-03 22:00:00.00,1,2017-01-03 12:16:37,24467163,55587,497,2024,57,3,17,1
2017-01-03 05:00:00.00,757,2017-01-04 02:00:00.00,9,2017-01-03 12:53:00,24496166,293,497,2030,57,1,6,1
2017-01-03 06:00:00.00,469,2017-01-04 03:00:00.00,2,2017-01-03 13:29:25,24537261,4195,500,2041,58,3,11,1
2017-01-03 07:00:00.00,227,2017-01-04 05:00:00.00,1,2017-01-03 14:34:42,24612728,75467,503,2055,59,3,14,1
2017-01-03 08:00:00.00,154,2017-01-04 07:00:00.00,6,2017-01-03 15:34:59,24683000,7272,505,2067,61,2,12,2
2017-01-03 09:00:04.00,211,2017-01-04 08:00:00.00,1,2017-01-03 16:41:27,24762987,79987,510,2101,62,5,34,1
2017-01-03 10:00:03.00,85,2017-01-04 20:00:00.00,1,2017-01-03 17:48:12,24858531,95544,515,2122,66,5,21,4
2017-01-03 11:00:03.00,56,2017-01-04 21:00:04.00,1,2017-01-03 19:00:48,24957149,98618,527,2153,67,12,31,1
2017-01-03 12:00:04.00,69,2017-01-06 09:00:02.00,5,2017-01-03 20:07:47,25052508,95359,533,2186,70,6,33,3
2017-01-03 13:00:08.00,77,2017-01-06 15:00:09.00,1,2017-01-03 20:45:01,25089299,36791,541,2209,71,8,23,1
2017-01-03 14:00:00.00,66,2017-01-06 16:00:20.00,4,2017-01-03 21:22:06,25126717,37418,545,2228,74,4,19,3
2017-01-03 15:00:01.00,90,2017-01-06 18:00:01.00,7,2017-01-03 22:18:10,25176529,49812,553,2262,75,8,34,1
2017-01-03 16:00:06.00,96,2017-01-06 19:00:00.00,2,2017-01-03 23:21:24,25226386,49857,558,2309,77,5,47,2
2017-01-03 17:00:03.00,101,2017-01-06 21:00:01.00,2,2017-01-04 00:19:27,25226386,1,558,2309,77,1,1,1
2017-01-03 18:00:07.00,191,2017-01-07 03:00:00.00,1,2017-01-04 01:21:17,25325321,98935,577,2377,82,19,68,5
2017-01-03 19:00:00.00,124,2017-01-07 10:00:02.00,1,2017-01-04 02:13:08,25402259,76938,579,2396,84,2,19,2
2017-01-03 20:00:00.00,280,2017-01-07 19:00:00.00,2,2017-01-04 03:55:16,25510198,17939,588,2468,91,9,72,7
2017-01-03 21:00:01.00,106,2017-01-07 21:00:01.00,3,2017-01-04 04:40:59,25548184,37986,596,2503,93,8,35,2
2017-01-03 22:00:00.00,92,2017-01-07 23:00:01.00,2,2017-01-04 05:26:24,25578963,3779,597,2503,93,1,1,1
2017-01-03 23:00:03.00,63,,,2017-01-04 06:26:48,25688429,19466,599,2507,93,2,4,1
2017-01-04 00:00:00.00,69,,,2017-01-04 07:34:19,25731214,42785,599,2508,94,1,1,1
2017-01-04 01:00:01.00,68,,,2017-01-04 08:49:44,25731214,1,599,2508,94,1,1,1
2017-01-04 02:00:00.00,234,,,2017-01-04 10:23:29,25785147,53933,599,2508,94,1,1,1
2017-01-04 03:00:00.00,150,,,2017-01-04 11:01:47,25794528,9381,599,2509,94,1,1,1
2017-01-04 04:00:00.00,84,,,2017-01-04 11:55:30,25815031,253,599,2509,94,1,1,1
2017-01-04 05:00:00.00,77,,,2017-01-04 13:09:47,25844215,29184,599,2510,95,1,1,1
2017-01-04 06:00:00.00,152,,,2017-01-04 13:48:24,25864994,2779,599,2510,95,1,1,1
2017-01-04 07:00:00.00,313,,,2017-01-04 14:27:26,25888194,232,599,2510,95,1,1,1
2017-01-04 08:00:00.00,81,,,2017-01-04 15:22:50,25922241,3447,599,2511,95,1,1,1
2017-01-04 09:00:02.00,38,,,2017-01-04 16:35:25,25963382,41141,600,2511,95,1,1,1
2017-01-04 10:00:01.00,30,,,2017-01-04 17:39:26,25998406,3524,600,2512,95,1,1,1
2017-01-04 11:00:04.00,26,,,2017-01-04 19:00:24,26043020,44614,601,2513,95,1,1,1
2017-01-04 12:00:10.00,22,,,2017-01-04 20:13:46,26081941,38921,601,2513,95,1,1,1
2017-01-04 13:00:01.00,35,,,2017-01-04 20:53:15,26099835,17894,601,2513,95,1,1,1
2017-01-04 14:00:02.00,35,,,2017-01-04 21:32:51,26117351,17516,601,2513,95,1,1,1
2017-01-04 15:00:02.00,21,,,2017-01-04 22:30:17,26141352,241,601,2513,95,1,1,1
2017-01-04 16:00:05.00,29,,,2017-01-04 23:27:58,26167532,2618,602,2513,95,1,1,1
2017-01-04 17:00:06.00,38,,,2017-01-05 00:27:10,26192325,24793,602,2514,95,1,1,1
2017-01-04 18:00:03.00,29,,,2017-01-05 01:17:26,26211367,1942,604,2515,95,2,1,1
2017-01-04 19:00:01.00,47,,,2017-01-05 02:46:25,26245528,34161,604,2516,95,1,1,1
2017-01-04 20:00:00.00,35,,,2017-01-05 03:27:45,26259589,1461,604,2516,95,1,1,1
2017-01-04 21:00:04.00,42,,,2017-01-05 04:48:21,26314091,5452,604,2516,95,1,1,1
2017-01-04 22:00:00.00,31,,,2017-01-05 05:29:36,26336626,22535,604,2516,95,1,1,1
2017-01-04 23:00:05.00,30,,,2017-01-05 06:20:36,26360049,23423,604,2516,95,1,1,1
2017-01-05 00:00:00.00,31,,,2017-01-05 07:12:02,26379248,19199,604,2516,95,1,1,1
2017-01-05 01:00:05.00,21,,,2017-01-05 08:23:58,26404811,25563,604,2516,95,1,1,1
2017-01-05 02:00:04.00,44,,,2017-01-05 09:47:00,26423611,188,604,2516,95,1,1,1
2017-01-05 03:00:00.00,31,,,2017-01-05 12:36:00,26459579,35968,604,2516,95,1,1,1
2017-01-05 04:00:00.00,29,,,2017-01-05 13:07:13,26467217,7638,604,2516,95,1,1,1
2017-01-05 05:00:01.00,39,,,2017-01-05 13:49:52,26478245,1128,604,2516,95,1,1,1
2017-01-05 06:00:00.00,25,,,2017-01-05 14:32:37,26489427,11182,604,2516,95,1,1,1
2017-01-05 07:00:05.00,18,,,2017-01-05 15:39:19,26510663,21236,604,2516,95,1,1,1
2017-01-05 08:00:00.00,10,,,2017-01-05 16:46:27,26531125,2462,604,2516,95,1,1,1
2017-01-05 09:00:04.00,21,,,2017-01-05 17:41:34,26549307,18182,604,2516,95,1,1,1
2017-01-05 10:00:00.00,3,,,2017-01-05 19:01:34,26573970,24663,604,2515,95,1,1,1
2017-01-05 11:00:07.00,6,,,2017-01-05 19:57:24,26592093,18123,604,2515,95,1,1,1
2017-01-05 12:00:01.00,7,,,2017-01-05 20:54:10,26609404,17311,604,2515,95,1,1,1
2017-01-05 13:00:01.00,6,,,2017-01-05 22:04:10,26637356,27952,605,2516,95,1,1,1
2017-01-05 14:00:01.00,6,,,2017-01-05 23:01:20,26655874,18518,607,2517,96,2,1,1
2017-01-05 15:00:01.00,10,,,2017-01-06 00:12:27,26678844,2297,607,2517,96,1,1,1
2017-01-05 16:00:00.00,18,,,2017-01-06 00:57:30,26691630,12786,607,2517,96,1,1,1
2017-01-05 17:00:02.00,17,,,2017-01-06 01:56:00,26708858,17228,607,2517,96,1,1,1
2017-01-05 18:00:01.00,21,,,2017-01-06 02:55:13,26725897,1739,607,2517,96,1,1,1
2017-01-05 19:00:03.00,8,,,2017-01-06 03:40:33,26738053,12156,608,2517,96,1,1,1
2017-01-05 20:00:01.00,15,,,2017-01-06 04:25:51,26749057,114,607,2517,96,1,1,1
2017-01-05 21:00:00.00,8,,,2017-01-06 06:09:09,26770068,2111,607,2517,96,1,1,1
2017-01-05 22:00:00.00,10,,,2017-01-06 07:09:17,26778795,8727,607,2517,96,1,1,1
2017-01-05 23:00:01.00,10,,,2017-01-06 07:55:00,26784651,5856,607,2517,96,1,1,1
2017-01-06 00:00:00.00,17,,,2017-01-06 10:25:19,26813629,28978,607,2517,96,1,1,1
2017-01-06 01:00:01.00,16,,,2017-01-06 10:56:39,26817163,3534,607,2517,96,1,1,1
2017-01-06 02:00:05.00,16,,,2017-01-06 11:58:05,26824235,772,608,2517,96,1,1,1
2017-01-06 03:00:00.00,15,,,2017-01-06 13:31:41,26837010,12775,608,2517,96,1,1,1
2017-01-06 04:00:02.00,11,,,2017-01-06 14:03:20,26841802,4792,608,2517,96,1,1,1
2017-01-06 05:00:00.00,13,,,2017-01-06 14:50:36,26853430,11628,608,2517,96,1,1,1
2017-01-06 06:00:05.00,9,,,2017-01-06 15:38:08,26871008,17578,608,2517,96,1,1,1
2017-01-06 07:00:00.00,8,,,2017-01-06 16:58:45,26892432,21424,609,2517,96,1,1,1
2017-01-06 08:00:03.00,2,,,2017-01-06 18:03:41,26936245,43813,609,2517,96,1,1,1
2017-01-06 09:00:02.00,44,,,2017-01-06 19:09:41,26960664,24419,609,2517,96,1,1,1
2017-01-06 10:00:02.00,42,,,2017-01-06 20:04:37,26977620,16956,609,2517,96,1,1,1
2017-01-06 11:00:07.00,12,,,2017-01-06 21:00:02,26992450,1483,609,2517,96,1,1,1
2017-01-06 12:00:07.00,8,,,2017-01-06 21:56:19,26992450,1,609,2517,96,1,1,1
2017-01-06 13:00:16.00,11,,,2017-01-06 22:39:52,27017242,24792,609,2517,96,1,1,1
2017-01-06 14:00:10.00,9,,,2017-01-06 23:56:11,27034057,16815,609,2517,96,1,1,1
2017-01-06 15:00:09.00,14,,,2017-01-07 01:10:40,27049166,1519,609,2516,96,1,1,1
2017-01-06 16:00:20.00,97,,,2017-01-07 02:04:59,27074310,25144,609,2516,96,1,1,1
2017-01-06 17:00:02.00,41,,,2017-01-07 03:01:32,27106093,31783,609,2516,96,1,1,1
2017-01-06 18:00:01.00,139,,,2017-01-07 03:58:51,27119291,13198,609,2515,96,1,1,1
2017-01-06 19:00:00.00,87,,,2017-01-07 04:53:47,27131430,12139,608,2515,96,1,1,1
2017-01-06 20:00:00.00,49,,,2017-01-07 05:51:25,27142970,1154,608,2516,96,1,1,1
2017-01-06 21:00:01.00,56,,,2017-01-07 07:13:12,27154885,11915,608,2516,96,1,1,1
2017-01-06 22:00:00.00,28,,,2017-01-07 08:11:24,27161277,6392,608,2515,96,1,1,1
2017-01-06 23:00:00.00,29,,,2017-01-07 09:33:16,27179942,18665,608,2515,96,1,1,1
2017-01-07 00:00:01.00,17,,,2017-01-07 10:27:24,27194946,154,608,2515,96,1,1,1
2017-01-07 01:00:02.00,13,,,2017-01-07 11:19:18,27199937,4991,608,2515,96,1,1,1
2017-01-07 02:00:04.00,26,,,2017-01-07 12:30:37,27206066,6129,608,2515,96,1,1,1
2017-01-07 03:00:00.00,140,,,2017-01-07 13:01:45,27208984,2918,608,2515,96,1,1,1
2017-01-07 04:00:05.00,40,,,2017-01-07 13:51:23,27208984,1,608,2515,96,1,1,1
2017-01-07 05:00:04.00,31,,,2017-01-07 15:00:08,27225435,16451,608,2516,96,1,1,1
2017-01-07 06:00:08.00,13,,,2017-01-07 16:10:47,27225435,1,608,2516,96,1,1,1
2017-01-07 07:00:03.00,24,,,2017-01-07 16:49:56,27245821,2386,608,2517,96,1,1,1
2017-01-07 08:00:07.00,17,,,2017-01-07 18:01:03,27260863,1542,608,2518,96,1,1,1
2017-01-07 09:00:00.00,20,,,2017-01-07 18:51:52,27272011,11148,608,2518,96,1,1,1
2017-01-07 10:00:02.00,96,,,2017-01-07 20:09:31,27289057,1746,608,2520,96,1,2,1
2017-01-07 11:00:02.00,22,,,2017-01-07 21:13:03,27302947,1389,608,2520,96,1,1,1
2017-01-07 12:00:22.00,5,,,2017-01-07 22:17:29,27327430,24483,608,2520,96,1,1,1
2017-01-07 13:00:05.00,5,,,2017-01-07 23:31:38,27403641,76211,608,2520,96,1,1,1
2017-01-07 14:00:00.00,6,,,2017-01-08 00:38:19,27422910,19269,608,2520,96,1,1,1
2017-01-07 15:00:16.00,9,,,2017-01-08 01:51:42,27437644,14734,608,2520,96,1,1,1
2017-01-07 16:00:00.00,9,,,2017-01-08 03:01:48,27450933,13289,608,2520,96,1,1,1
2017-01-07 17:00:08.00,15,,,2017-01-08 03:36:58,27457221,6288,608,2521,96,1,1,1
2017-01-07 18:00:02.00,12,,,2017-01-08 04:41:19,27468457,11236,608,2521,96,1,1,1
2017-01-07 19:00:00.00,22,,,2017-01-08 05:45:22,27479044,1587,608,2520,96,1,1,1
2017-01-07 20:00:02.00,20,,,2017-01-08 06:19:59,27483959,4915,608,2520,96,1,1,1
2017-01-07 21:00:01.00,28,,,2017-01-08 07:26:07,27483959,1,608,2520,96,1,1,1
2017-01-07 22:00:03.00,15,,,2017-01-08 07:49:27,27494132,1173,608,2520,96,1,1,1
2017-01-07 23:00:01.00,257,,,2017-01-08 08:53:49,27532149,3817,608,2521,96,1,1,1
