time1,retweets,time3,tweet,time2,loops,dif_loops,revines,likes,comments,dif_revines,dif_likes,dif_comments
2017-01-05 02:00:04.00,1568,2017-01-05 01:00:05.00,8,2017-01-05 01:17:26,21642,,17,29,0,,,
2017-01-05 04:00:00.00,2874,2017-01-05 02:00:04.00,49,2017-01-05 02:46:25,182179,160537,70,142,7,53,113,7
2017-01-05 05:00:01.00,2227,2017-01-05 03:00:00.00,56,2017-01-05 03:27:45,256639,74460,90,180,9,21,38,2
2017-01-05 06:00:00.00,1648,2017-01-05 04:00:00.00,42,2017-01-05 04:48:21,405786,149147,127,248,10,37,68,1
2017-01-05 07:00:05.00,1353,2017-01-05 05:00:01.00,28,2017-01-05 05:29:36,462336,56550,138,272,12,11,24,2
2017-01-05 08:00:00.00,1324,2017-01-05 06:00:00.00,17,2017-01-05 06:20:36,518373,56037,158,306,14,21,34,2
2017-01-05 11:00:07.00,1008,2017-01-05 07:00:05.00,14,2017-01-05 07:12:02,563213,44840,173,338,14,15,32,1
2017-01-05 15:00:01.00,553,2017-01-05 08:00:00.00,20,2017-01-05 08:23:58,622036,58823,198,380,17,25,42,3
2017-01-05 16:00:00.00,378,2017-01-05 09:00:04.00,12,2017-01-05 09:47:00,684274,62238,220,407,17,22,27,1
2017-01-05 17:00:02.00,380,2017-01-05 10:00:00.00,13,2017-01-05 11:11:13,752923,68649,226,431,17,6,24,1
2017-01-05 18:00:01.00,233,2017-01-05 11:00:07.00,18,2017-01-05 12:36:00,808723,55800,244,463,20,18,32,3
2017-01-05 19:00:03.00,122,2017-01-05 12:00:01.00,18,2017-01-05 13:07:13,826824,18101,248,471,21,4,8,1
2017-01-05 22:00:00.00,113,2017-01-05 13:00:01.00,16,2017-01-05 13:49:52,851621,24797,254,487,21,6,16,1
2017-01-05 23:00:01.00,126,2017-01-05 14:00:01.00,12,2017-01-05 14:32:37,876657,25036,259,503,22,5,16,1
2017-01-06 00:00:00.00,180,2017-01-05 15:00:01.00,11,2017-01-05 15:39:19,907895,31238,270,525,22,11,22,1
2017-01-06 01:00:01.00,160,2017-01-05 16:00:00.00,17,2017-01-05 16:46:27,939089,31194,277,548,22,7,23,1
2017-01-06 02:00:05.00,167,2017-01-05 17:00:02.00,6,2017-01-05 17:41:34,959544,20455,283,567,22,6,19,1
2017-01-06 03:00:00.00,128,2017-01-05 18:00:01.00,3,2017-01-05 19:01:34,979736,20192,292,582,22,9,15,1
2017-01-06 04:00:02.00,133,2017-01-05 19:00:03.00,4,2017-01-05 19:57:24,991921,12185,297,590,22,5,8,1
2017-01-06 09:00:02.00,67,2017-01-05 20:00:01.00,5,2017-01-05 20:54:10,1005070,13149,300,603,22,3,13,1
2017-01-06 12:00:07.00,63,2017-01-05 21:00:00.00,3,2017-01-05 22:04:10,1021060,15990,307,619,23,7,16,1
2017-01-06 13:00:16.00,58,2017-01-05 22:00:00.00,2,2017-01-05 23:01:20,1034249,13189,311,631,24,4,12,1
2017-01-06 14:00:10.00,65,2017-01-05 23:00:01.00,4,2017-01-06 00:12:27,1049517,15268,315,640,24,4,9,1
2017-01-06 15:00:09.00,47,2017-01-06 00:00:00.00,2,2017-01-06 00:57:30,1059401,9884,319,650,24,4,11,1
2017-01-06 16:00:20.00,36,2017-01-06 01:00:01.00,3,2017-01-06 01:56:00,1070865,11464,322,655,24,3,5,1
2017-01-06 17:00:02.00,38,2017-01-06 03:00:00.00,1,2017-01-06 02:55:13,1081711,10846,323,658,25,1,3,1
2017-01-06 19:00:00.00,20,2017-01-06 04:00:02.00,1,2017-01-06 03:40:33,1089348,7637,325,662,25,2,4,1
2017-01-06 20:00:00.00,13,2017-01-06 05:00:00.00,1,2017-01-06 04:25:51,1097106,7758,327,666,25,2,4,1
2017-01-06 21:00:01.00,17,2017-01-06 09:00:02.00,1,2017-01-06 06:09:09,1112085,14979,327,673,25,1,7,1
2017-01-06 22:00:00.00,20,2017-01-06 10:00:02.00,1,2017-01-06 07:09:17,1118323,6238,329,681,25,2,8,1
2017-01-07 00:00:01.00,15,2017-01-06 11:00:07.00,3,2017-01-06 07:55:00,1122677,4354,331,686,25,2,5,1
2017-01-07 01:00:02.00,17,2017-01-06 16:00:20.00,1,2017-01-06 08:40:42,1127319,4642,331,689,25,1,3,1
2017-01-07 02:00:04.00,7,2017-01-06 19:00:00.00,1,2017-01-06 10:25:19,1138738,11419,336,697,25,5,8,1
2017-01-07 03:00:00.00,14,2017-01-06 21:00:01.00,1,2017-01-06 10:56:39,1141928,3190,338,698,25,2,1,1
2017-01-07 04:00:05.00,15,2017-01-06 22:00:00.00,1,2017-01-06 11:58:05,1147676,5748,338,702,25,1,4,1
2017-01-07 06:00:08.00,14,2017-01-07 00:00:01.00,1,2017-01-06 13:31:41,1156976,9300,340,705,26,2,3,1
2017-01-07 07:00:03.00,22,2017-01-07 10:00:02.00,1,2017-01-06 14:03:20,1160345,3369,340,707,26,1,2,1
2017-01-07 08:00:07.00,16,2017-01-07 11:00:02.00,1,2017-01-06 14:50:36,1164744,4399,341,708,26,1,1,1
2017-01-07 09:00:00.00,9,2017-01-07 15:00:16.00,4,2017-01-06 15:38:08,1169718,4974,343,714,26,2,6,1
2017-01-07 10:00:02.00,10,2017-01-07 21:00:01.00,2,2017-01-06 16:58:45,1175994,6276,344,719,26,1,5,1
2017-01-07 13:00:05.00,20,,,2017-01-06 18:03:41,1179953,3959,346,724,26,2,5,1
2017-01-07 14:00:00.00,14,,,2017-01-06 19:09:41,1183456,3503,347,727,26,1,3,1
2017-01-07 18:00:02.00,12,,,2017-01-06 20:04:37,1186023,2567,347,731,26,1,4,1
2017-01-07 21:00:01.00,9,,,2017-01-06 21:00:02,1188867,2844,350,736,26,3,5,1
,,,,2017-01-06 21:56:19,1188867,1,350,736,26,1,1,1
,,,,2017-01-06 22:39:52,1193678,4811,352,742,26,2,6,1
,,,,2017-01-06 23:56:11,1197458,3780,354,748,26,2,6,1
,,,,2017-01-07 01:10:40,1201275,3817,358,749,26,4,1,1
,,,,2017-01-07 02:04:59,1203935,2660,358,750,26,1,1,1
,,,,2017-01-07 03:01:32,1206835,2900,359,752,26,1,2,1
,,,,2017-01-07 03:58:51,1210116,3281,359,756,26,1,4,1
,,,,2017-01-07 04:53:47,1213189,3073,359,758,26,1,2,1
,,,,2017-01-07 05:51:25,1216050,2861,361,763,26,2,5,1
,,,,2017-01-07 07:13:12,1220211,4161,362,766,26,1,3,1
,,,,2017-01-07 08:11:24,1223321,3110,364,769,26,2,3,1
,,,,2017-01-07 09:33:16,1227931,4610,365,772,26,1,3,1
,,,,2017-01-07 10:27:24,1230800,2869,367,775,26,2,3,1
,,,,2017-01-07 11:19:18,1233742,2942,369,778,26,2,3,1
,,,,2017-01-07 12:30:37,1237994,4252,369,778,26,1,1,1
,,,,2017-01-07 13:01:45,1239674,1680,370,779,26,1,1,1
,,,,2017-01-07 13:51:23,1239674,1,370,779,26,1,1,1
,,,,2017-01-07 15:00:08,1247172,7498,372,784,27,2,5,1
,,,,2017-01-07 16:10:47,1247172,1,372,784,27,1,1,1
,,,,2017-01-07 16:49:56,1254505,7333,374,791,27,2,7,1
,,,,2017-01-07 18:01:03,1259596,5091,377,795,27,3,4,1
,,,,2017-01-07 18:51:52,1262683,3087,377,795,27,1,1,1
,,,,2017-01-07 20:09:31,1265825,3142,378,797,27,1,2,1
,,,,2017-01-07 21:13:03,1268540,2715,379,800,27,1,3,1
,,,,2017-01-07 22:17:29,1270696,2156,380,801,27,1,1,1
,,,,2017-01-08 01:51:42,1278632,7936,382,805,29,2,4,2
,,,,2017-01-08 03:01:48,1281638,3006,382,808,29,1,3,1
,,,,2017-01-08 03:36:58,1282901,1263,382,808,29,1,1,1
,,,,2017-01-08 04:41:19,1285984,3083,384,809,29,2,1,1
,,,,2017-01-08 05:45:22,1289061,3077,383,809,29,2,1,1
,,,,2017-01-08 06:19:59,1290498,1437,383,809,29,1,1,1
,,,,2017-01-08 07:26:07,1290498,1,383,809,29,1,1,1
,,,,2017-01-08 07:49:27,1293835,3337,384,810,29,1,1,1
,,,,2017-01-08 08:53:49,1296050,2215,385,811,29,1,1,1
