time1,retweets,time3,tweet,time2,loops,dif_loops,revines,likes,comments,dif_revines,dif_likes,dif_comments
2017-01-01 21:00:00.00,1,2017-01-01 02:00:00.00,1,2017-01-02 04:39:02,2489921,,15734,19984,1167,,,
2017-01-02 01:00:00.00,5,2017-01-03 04:00:00.00,1,2017-01-02 07:18:18,2491666,1745,15734,19984,1167,1,1,1
2017-01-02 03:00:00.00,2,2017-01-03 05:00:00.00,1,2017-01-02 08:36:23,2492738,1072,15734,19985,1167,1,1,1
2017-01-02 04:00:00.00,10,2017-01-04 00:00:00.00,1,2017-01-02 09:56:16,2493830,1092,15734,19985,1167,1,1,1
2017-01-02 05:00:00.00,3,2017-01-04 04:00:00.00,1,2017-01-02 11:24:27,2494047,217,15734,19985,1167,1,1,1
2017-01-02 07:00:00.00,25,2017-01-04 05:00:00.00,1,2017-01-02 11:55:22,2494139,92,15734,19985,1167,1,1,1
2017-01-02 08:00:00.00,26,2017-01-04 08:00:00.00,2,2017-01-02 17:46:51,2495870,1731,15734,19985,1167,1,1,1
2017-01-02 09:00:00.00,20,2017-01-04 09:00:02.00,1,2017-01-02 18:44:13,2496248,378,15734,19985,1167,1,1,1
2017-01-02 10:00:00.00,13,2017-01-04 17:00:06.00,1,2017-01-02 20:31:07,2496728,480,15734,19985,1167,1,1,1
2017-01-02 11:00:00.00,4,2017-01-04 18:00:03.00,2,2017-01-03 00:41:42,2497956,1228,15734,19985,1167,1,1,1
2017-01-02 12:00:00.00,1,2017-01-04 19:00:01.00,2,2017-01-03 01:32:45,2498294,338,15734,19985,1167,1,1,1
2017-01-02 13:00:00.00,4,2017-01-04 20:00:00.00,2,2017-01-03 05:18:09,2542915,44621,15737,19990,1167,3,5,1
2017-01-02 16:00:00.00,1,2017-01-04 21:00:04.00,1,2017-01-03 08:09:01,2597901,54986,15737,19991,1167,1,1,1
2017-01-02 17:00:00.00,5,2017-01-04 23:00:05.00,1,2017-01-03 09:42:57,2605014,7113,15737,19991,1167,1,1,1
2017-01-02 18:00:02.00,7,2017-01-05 00:00:00.00,1,2017-01-03 10:56:36,2608211,3197,15737,19991,1167,1,1,1
2017-01-02 19:00:00.00,1,2017-01-05 02:00:04.00,1,2017-01-03 12:16:37,2611340,3129,15737,19992,1167,1,1,1
2017-01-02 20:00:01.00,5,2017-01-05 03:00:00.00,1,2017-01-03 12:53:00,2612824,1484,15737,19993,1167,1,1,1
2017-01-02 21:00:00.00,2,2017-01-05 06:00:00.00,1,2017-01-03 13:29:25,2614696,1872,15737,19993,1167,1,1,1
2017-01-02 22:00:00.00,6,2017-01-05 07:00:05.00,2,2017-01-03 14:34:42,2619340,4644,15737,19994,1167,1,1,1
2017-01-02 23:00:00.00,5,2017-01-05 08:00:00.00,1,2017-01-03 15:34:59,2625066,5726,15737,19995,1167,1,1,1
2017-01-03 00:00:01.00,6,2017-01-05 15:00:01.00,2,2017-01-03 16:41:27,2635881,10815,15738,19995,1167,1,1,1
2017-01-03 01:00:00.00,5,2017-01-05 17:00:02.00,1,2017-01-03 17:48:12,2646558,10677,15739,19995,1167,1,1,1
2017-01-03 02:00:00.00,7,2017-01-05 21:00:00.00,1,2017-01-03 19:00:48,2657193,10635,15739,19996,1167,1,1,1
2017-01-03 03:00:00.00,6,2017-01-06 04:00:02.00,1,2017-01-03 20:07:47,2664988,7795,15739,19996,1167,1,1,1
2017-01-03 04:00:00.00,258,2017-01-06 08:00:03.00,1,2017-01-03 20:45:01,2669223,4235,15739,19997,1167,1,1,1
2017-01-03 05:00:00.00,523,2017-01-06 10:00:02.00,1,2017-01-03 21:22:06,2673287,4064,15739,19997,1167,1,1,1
2017-01-03 06:00:00.00,372,2017-01-06 13:00:16.00,1,2017-01-03 22:18:10,2679692,6405,15739,19997,1167,1,1,1
2017-01-03 07:00:00.00,548,2017-01-06 14:00:10.00,3,2017-01-03 23:21:24,2687650,7958,15739,19997,1167,1,1,1
2017-01-03 08:00:00.00,210,2017-01-06 16:00:20.00,1,2017-01-04 00:19:27,2687650,1,15739,19997,1167,1,1,1
2017-01-03 09:00:04.00,99,2017-01-06 19:00:00.00,20,2017-01-04 01:21:17,2707625,19975,15739,19998,1167,1,1,1
2017-01-03 10:00:03.00,62,2017-01-06 20:00:00.00,7,2017-01-04 02:13:08,2714171,6546,15739,19998,1167,1,1,1
2017-01-03 11:00:03.00,29,2017-01-06 21:00:01.00,1,2017-01-04 03:55:16,2732841,18670,15740,19999,1167,1,1,1
2017-01-03 12:00:04.00,26,2017-01-06 22:00:00.00,1,2017-01-04 04:40:59,2751218,18377,15741,19999,1167,1,1,1
2017-01-03 13:00:08.00,19,2017-01-07 00:00:01.00,3,2017-01-04 05:26:24,2767914,16696,15741,20002,1167,1,3,1
2017-01-03 14:00:00.00,37,2017-01-07 16:00:00.00,1,2017-01-04 06:26:48,2793346,25432,15744,20003,1167,3,1,1
2017-01-03 15:00:01.00,47,2017-01-07 19:00:00.00,1,2017-01-04 07:34:19,2816675,23329,15745,20006,1167,1,3,1
2017-01-03 16:00:06.00,96,2017-01-07 20:00:02.00,1,2017-01-04 08:49:44,2816675,1,15745,20006,1167,1,1,1
2017-01-03 17:00:03.00,181,2017-01-07 21:00:01.00,2,2017-01-04 10:23:29,2840648,23973,15744,20007,1167,1,1,1
2017-01-03 18:00:07.00,123,2017-01-07 22:00:03.00,10,2017-01-04 11:01:47,2842842,2194,15744,20007,1167,1,1,1
2017-01-03 19:00:00.00,150,,,2017-01-04 11:55:30,2846573,3731,15744,20007,1167,1,1,1
2017-01-03 20:00:00.00,105,,,2017-01-04 13:09:47,2854781,8208,15744,20008,1167,1,1,1
2017-01-03 21:00:01.00,89,,,2017-01-04 13:48:24,2860074,5293,15744,20008,1167,1,1,1
2017-01-03 22:00:00.00,97,,,2017-01-04 14:27:26,2866588,6514,15744,20008,1167,1,1,1
2017-01-03 23:00:03.00,119,,,2017-01-04 15:22:50,2878408,11820,15744,20008,1167,1,1,1
2017-01-04 00:00:00.00,164,,,2017-01-04 16:35:25,2900814,22406,15745,20009,1167,1,1,1
2017-01-04 01:00:01.00,134,,,2017-01-04 17:39:26,2941082,40268,15749,20012,1167,4,3,1
2017-01-04 02:00:00.00,114,,,2017-01-04 19:00:24,2991156,50074,15749,20014,1167,1,2,1
2017-01-04 03:00:00.00,93,,,2017-01-04 20:13:46,3039985,48829,15752,20015,1167,3,1,1
2017-01-04 04:00:00.00,220,,,2017-01-04 20:53:15,3063397,23412,15753,20015,1167,1,1,1
2017-01-04 05:00:00.00,324,,,2017-01-04 21:32:51,3084195,20798,15753,20017,1167,1,2,1
2017-01-04 06:00:00.00,301,,,2017-01-04 22:30:17,3113407,29212,15755,20019,1167,2,2,1
2017-01-04 07:00:00.00,354,,,2017-01-04 23:27:58,3142132,28725,15755,20019,1167,1,1,1
2017-01-04 08:00:00.00,317,,,2017-01-05 00:27:10,3175570,33438,15755,20019,1167,1,1,1
2017-01-04 09:00:02.00,163,,,2017-01-05 01:17:26,3208290,32720,15756,20020,1167,1,1,1
2017-01-04 10:00:01.00,70,,,2017-01-05 02:46:25,3266164,57874,15756,20022,1167,1,2,1
2017-01-04 11:00:04.00,44,,,2017-01-05 03:27:45,3288255,22091,15756,20022,1167,1,1,1
2017-01-04 12:00:10.00,38,,,2017-01-05 04:48:21,3336491,48236,15757,20025,1168,1,3,1
2017-01-04 13:00:01.00,87,,,2017-01-05 05:29:36,3361646,25155,15757,20026,1168,1,1,1
2017-01-04 14:00:02.00,120,,,2017-01-05 06:20:36,3388121,26475,15760,20028,1168,3,2,1
2017-01-04 15:00:02.00,124,,,2017-01-05 07:12:02,3411133,23012,15761,20029,1168,1,1,1
2017-01-04 16:00:05.00,226,,,2017-01-05 08:23:58,3431204,20071,15763,20030,1168,2,1,1
2017-01-04 17:00:06.00,432,,,2017-01-05 09:47:00,3444455,13251,15764,20031,1168,1,1,1
2017-01-04 18:00:03.00,593,,,2017-01-05 11:11:13,3452102,7647,15764,20031,1168,1,1,1
2017-01-04 19:00:01.00,617,,,2017-01-05 12:36:00,3461983,9881,15764,20033,1168,1,2,1
2017-01-04 20:00:00.00,642,,,2017-01-05 13:07:13,3466283,4300,15764,20033,1168,1,1,1
2017-01-04 21:00:04.00,565,,,2017-01-05 13:49:52,3473807,7524,15765,20033,1168,1,1,1
2017-01-04 22:00:00.00,446,,,2017-01-05 14:32:37,3484479,10672,15765,20033,1168,1,1,1
2017-01-04 23:00:05.00,351,,,2017-01-05 15:39:19,3506563,22084,15765,20033,1168,1,1,1
2017-01-05 00:00:00.00,480,,,2017-01-05 16:46:27,3533342,26779,15766,20033,1168,1,1,1
2017-01-05 01:00:05.00,450,,,2017-01-05 17:41:34,3554621,21279,15766,20033,1168,1,1,1
2017-01-05 02:00:04.00,553,,,2017-01-05 19:01:34,3588340,33719,15766,20034,1168,1,1,1
2017-01-05 03:00:00.00,543,,,2017-01-05 19:57:24,3611029,22689,15766,20034,1168,1,1,1
2017-01-05 04:00:00.00,460,,,2017-01-05 20:54:10,3637580,26551,15766,20035,1168,1,1,1
2017-01-05 05:00:01.00,492,,,2017-01-05 22:04:10,3669224,31644,15766,20037,1168,1,2,1
2017-01-05 06:00:00.00,441,,,2017-01-05 23:01:20,3689766,20542,15766,20038,1168,1,1,1
2017-01-05 07:00:05.00,371,,,2017-01-06 00:12:27,3714722,24956,15766,20038,1168,1,1,1
2017-01-05 08:00:00.00,259,,,2017-01-06 00:57:30,3729253,14531,15766,20038,1168,1,1,1
2017-01-05 09:00:04.00,168,,,2017-01-06 01:56:00,3751219,21966,15768,20039,1168,2,1,1
2017-01-05 10:00:00.00,94,,,2017-01-06 02:55:13,3774786,23567,15768,20040,1168,1,1,1
2017-01-05 11:00:07.00,75,,,2017-01-06 03:40:33,3791277,16491,15768,20042,1168,1,2,1
2017-01-05 12:00:01.00,82,,,2017-01-06 04:25:51,3812525,21248,15768,20042,1168,1,1,1
2017-01-05 13:00:01.00,99,,,2017-01-06 06:09:09,3841018,28493,15771,20043,1168,3,1,1
2017-01-05 14:00:01.00,133,,,2017-01-06 07:09:17,3850442,9424,15771,20043,1168,1,1,1
2017-01-05 15:00:01.00,203,,,2017-01-06 07:55:00,3861365,10923,15772,20043,1168,1,1,1
2017-01-05 16:00:00.00,262,,,2017-01-06 08:40:42,3869005,7640,15772,20043,1168,1,1,1
2017-01-05 17:00:02.00,343,,,2017-01-06 10:25:19,3877179,8174,15772,20044,1168,1,1,1
2017-01-05 18:00:01.00,306,,,2017-01-06 10:56:39,3878478,1299,15772,20044,1168,1,1,1
2017-01-05 19:00:03.00,353,,,2017-01-06 11:58:05,3881397,2919,15772,20044,1168,1,1,1
2017-01-05 20:00:01.00,304,,,2017-01-06 13:31:41,3892865,11468,15773,20044,1168,1,1,1
2017-01-05 21:00:00.00,371,,,2017-01-06 14:03:20,3896639,3774,15773,20044,1168,1,1,1
2017-01-05 22:00:00.00,316,,,2017-01-06 14:50:36,3902099,5460,15773,20044,1168,1,1,1
2017-01-05 23:00:01.00,266,,,2017-01-06 15:38:08,3907440,5341,15773,20044,1168,1,1,1
2017-01-06 00:00:00.00,248,,,2017-01-06 16:58:45,3917643,10203,15774,20044,1168,1,1,1
2017-01-06 01:00:01.00,218,,,2017-01-06 18:03:41,3925449,7806,15774,20044,1168,1,1,1
2017-01-06 02:00:05.00,285,,,2017-01-06 19:09:41,4040614,115165,15777,20046,1168,3,2,1
2017-01-06 03:00:00.00,330,,,2017-01-06 20:04:37,4158670,118056,15780,20050,1169,3,4,1
2017-01-06 04:00:02.00,259,,,2017-01-06 21:00:02,4229062,70392,15781,20052,1169,1,2,1
2017-01-06 05:00:00.00,400,,,2017-01-06 21:56:19,4229062,1,15781,20052,1169,1,1,1
2017-01-06 06:00:05.00,147,,,2017-01-06 22:39:52,4305112,76050,15781,20052,1169,1,1,1
2017-01-06 07:00:00.00,87,,,2017-01-06 23:56:11,4421703,116591,15781,20052,1169,1,1,1
2017-01-06 08:00:03.00,200,,,2017-01-07 01:10:40,4474574,52871,15781,20052,1169,1,1,1
2017-01-06 09:00:02.00,118,,,2017-01-07 02:04:59,4503225,28651,15781,20053,1169,1,1,1
2017-01-06 10:00:02.00,62,,,2017-01-07 03:01:32,4535859,32634,15781,20056,1169,1,3,1
2017-01-06 11:00:07.00,31,,,2017-01-07 03:58:51,4559962,24103,15783,20057,1169,2,1,1
2017-01-06 12:00:07.00,20,,,2017-01-07 04:53:47,4579796,19834,15783,20057,1169,1,1,1
2017-01-06 13:00:16.00,68,,,2017-01-07 05:51:25,4596340,16544,15784,20057,1169,1,1,1
2017-01-06 14:00:10.00,105,,,2017-01-07 07:13:12,4615883,19543,15784,20057,1169,1,1,1
2017-01-06 15:00:09.00,75,,,2017-01-07 08:11:24,4625033,9150,15784,20057,1169,1,1,1
2017-01-06 16:00:20.00,68,,,2017-01-07 09:33:16,4633051,8018,15785,20057,1169,1,1,1
2017-01-06 17:00:02.00,77,,,2017-01-07 10:27:24,4636599,3548,15785,20056,1169,1,1,1
2017-01-06 18:00:01.00,76,,,2017-01-07 11:19:18,4639277,2678,15785,20056,1169,1,1,1
2017-01-06 19:00:00.00,491,,,2017-01-07 12:30:37,4642739,3462,15785,20056,1169,1,1,1
2017-01-06 20:00:00.00,1327,,,2017-01-07 13:01:45,4644766,2027,15785,20056,1169,1,1,1
2017-01-06 21:00:01.00,699,,,2017-01-07 13:51:23,4644766,1,15785,20056,1169,1,1,1
2017-01-06 22:00:00.00,411,,,2017-01-07 15:00:08,4656917,12151,15786,20057,1169,1,1,1
2017-01-06 23:00:00.00,276,,,2017-01-07 16:10:47,4656917,1,15786,20057,1169,1,1,1
2017-01-07 00:00:01.00,560,,,2017-01-07 16:49:56,4679573,22656,15786,20057,1169,1,1,1
2017-01-07 01:00:02.00,283,,,2017-01-07 18:01:03,4692816,13243,15786,20058,1169,1,1,1
2017-01-07 02:00:04.00,221,,,2017-01-07 18:51:52,4746290,53474,15786,20060,1169,1,2,1
2017-01-07 03:00:00.00,366,,,2017-01-07 20:09:31,4813436,67146,15788,20061,1169,2,1,1
2017-01-07 04:00:05.00,200,,,2017-01-07 21:13:03,4878339,64903,15789,20062,1169,1,1,1
2017-01-07 05:00:04.00,143,,,2017-01-07 22:17:29,4942009,63670,15789,20064,1169,1,2,1
2017-01-07 06:00:08.00,134,,,2017-01-07 23:31:38,4995140,53131,15789,20064,1169,1,1,1
2017-01-07 07:00:03.00,116,,,2017-01-08 00:38:19,5026317,31177,15789,20065,1169,1,1,1
2017-01-07 08:00:07.00,80,,,2017-01-08 01:51:42,5067798,41481,15788,20065,1169,1,1,1
2017-01-07 09:00:00.00,51,,,2017-01-08 03:01:48,5097467,29669,15788,20066,1169,1,1,1
2017-01-07 10:00:02.00,42,,,2017-01-08 03:36:58,5110015,12548,15789,20066,1169,1,1,1
2017-01-07 11:00:02.00,27,,,2017-01-08 04:41:19,5125736,15721,15789,20067,1169,1,1,1
2017-01-07 12:00:22.00,16,,,2017-01-08 05:45:22,5139408,13672,15790,20067,1169,1,1,1
2017-01-07 13:00:05.00,15,,,2017-01-08 06:19:59,5149783,10375,15791,20067,1169,1,1,1
2017-01-07 14:00:00.00,24,,,2017-01-08 07:26:07,5149783,1,15791,20067,1169,1,1,1
2017-01-07 15:00:16.00,47,,,2017-01-08 07:49:27,5171519,21736,15793,20069,1170,2,2,1
2017-01-07 16:00:00.00,50,,,2017-01-08 08:53:49,5179556,8037,15793,20069,1170,1,1,1
2017-01-07 17:00:08.00,134,,,,,,,,,,,
2017-01-07 18:00:02.00,77,,,,,,,,,,,
2017-01-07 19:00:00.00,306,,,,,,,,,,,
2017-01-07 20:00:02.00,247,,,,,,,,,,,
2017-01-07 21:00:01.00,353,,,,,,,,,,,
2017-01-07 22:00:03.00,484,,,,,,,,,,,
2017-01-07 23:00:01.00,338,,,,,,,,,,,
